<?xml version="1.0" encoding="UTF-8" standalone="no"?>
<!-- Created with Inkscape (http://www.inkscape.org/) -->

<svg
   xmlns:dc="http://purl.org/dc/elements/1.1/"
   xmlns:cc="http://creativecommons.org/ns#"
   xmlns:rdf="http://www.w3.org/1999/02/22-rdf-syntax-ns#"
   xmlns:svg="http://www.w3.org/2000/svg"
   xmlns="http://www.w3.org/2000/svg"
   xmlns:sodipodi="http://sodipodi.sourceforge.net/DTD/sodipodi-0.dtd"
   xmlns:inkscape="http://www.inkscape.org/namespaces/inkscape"
   id="svg2996"
   version="1.1"
   inkscape:version="0.48.2 r9819"
   width="900"
   height="675"
   xml:space="preserve"
   sodipodi:docname="devel-tools.svg"><metadata
     id="metadata3002"><rdf:RDF><cc:Work
         rdf:about=""><dc:format>image/svg+xml</dc:format><dc:type
           rdf:resource="http://purl.org/dc/dcmitype/StillImage" /><dc:title /></cc:Work></rdf:RDF></metadata><defs
     id="defs3000"><clipPath
       clipPathUnits="userSpaceOnUse"
       id="clipPath3010"><path
         d="m 0,1.2207e-4 720,0 0,539.99999793 -720,0 L 0,1.2207e-4 z"
         clip-rule="evenodd"
         id="path3012" /></clipPath><clipPath
       clipPathUnits="userSpaceOnUse"
       id="clipPath3110"><path
         d="M -4.087e-6,540 720,540 720,0 -8.024e-6,0"
         clip-rule="evenodd"
         id="path3112" /></clipPath></defs><sodipodi:namedview
     pagecolor="#ffffff"
     bordercolor="#666666"
     borderopacity="1"
     objecttolerance="10"
     gridtolerance="10"
     guidetolerance="10"
     inkscape:pageopacity="0"
     inkscape:pageshadow="2"
     inkscape:window-width="1267"
     inkscape:window-height="721"
     id="namedview2998"
     showgrid="false"
     inkscape:zoom="0.69925926"
     inkscape:cx="368.69621"
     inkscape:cy="283.49123"
     inkscape:window-x="215"
     inkscape:window-y="21"
     inkscape:window-maximized="0"
     inkscape:current-layer="g3004" /><g
     id="g3004"
     inkscape:groupmode="layer"
     inkscape:label="New Microsoft PowerPoint Presentation"
     transform="matrix(1.25,0,0,-1.25,0,675)"><path
   d="m 565.88,150 78,0 0,36 -78,0 0,-36 z"
   style="fill:#4f81bd;fill-opacity:1;fill-rule:evenodd;stroke:none"
   id="path3016" /><path
   d="m 565.88,150 78,0 0,36 -78,0 0,-36 z"
   style="fill:none;stroke:#385d8a;stroke-opacity:1;stroke-width:2;stroke-linecap:butt;stroke-linejoin:round;stroke-miterlimit:10;stroke-dasharray:none"
   id="path3018" /><text
   transform="matrix(1,0,0,-1,600.82,163.22)"
   id="text3020"><tspan
     style="fill:#ffffff;fill-opacity:1;fill-rule:nonzero;stroke:none;font-family:Calibri;font-variant:normal;font-weight:normal;font-size:14.04;writing-mode:lr;-inkscape-font-specification:Calibri"
     x="0"
     y="0"
     id="tspan3022">A</tspan></text>

<path
   d="m 630,150 12,0 0,18 -12,0 0,-18 z"
   style="fill:#fac090;fill-opacity:1;fill-rule:evenodd;stroke:none"
   id="path3024" /><path
   d="m 630,150 12,0 0,18 -12,0 0,-18 z"
   style="fill:none;stroke:#e46c0a;stroke-opacity:1;stroke-width:2;stroke-linecap:butt;stroke-linejoin:round;stroke-miterlimit:10;stroke-dasharray:none"
   id="path3026" /><path
   d="m 84,203.25 c 0,-6.21 21.49,-11.25 48,-11.25 26.51,0 48,5.04 48,11.25 l 0,-67.5 c 0,-6.21 -21.49,-11.25 -48,-11.25 -26.51,0 -48,5.04 -48,11.25 l 0,67.5 z"
   style="fill:#4f81bd;fill-opacity:1;fill-rule:evenodd;stroke:none"
   id="path3028" /><path
   d="m 84,203.25 c 0,6.22 21.49,11.25 48,11.25 26.51,0 48,-5.03 48,-11.25 0,-6.21 -21.49,-11.25 -48,-11.25 -26.51,0 -48,5.04 -48,11.25 z"
   style="fill:#95b3d7;fill-opacity:1;fill-rule:evenodd;stroke:none"
   id="path3030" /><path
   d="M 180,203.25 C 180,197.04 158.51,192 132,192 c -26.51,0 -48,5.04 -48,11.25 0,6.22 21.49,11.25 48,11.25 26.51,0 48,-5.03 48,-11.25 z m 0,0 0,-67.5 c 0,-6.21 -21.49,-11.25 -48,-11.25 -26.51,0 -48,5.04 -48,11.25 l 0,67.5"
   style="fill:none;stroke:#385d8a;stroke-opacity:1;stroke-width:2;stroke-linecap:butt;stroke-linejoin:round;stroke-miterlimit:10;stroke-dasharray:none"
   id="path3032" /><path
   d="m 483,57.408 c 30.35,-11.5 30.35,11.5 60.69,11.5 l 0,59.782 -60.69,0 0,-71.282 z m 5,71.282 0,7.75 60.28,0 0,-60.157 c -2.29,0 -4.59,-0.416 -4.59,-0.416 l 0,52.823 -55.69,0 z m 4.7,7.75 0,7.56 60.8,0 0,-59.967 c -2.61,0 -5.22,-0.312 -5.22,-0.312 l 0,52.719 -55.58,0 z"
   style="fill:#4f81bd;fill-opacity:1;fill-rule:evenodd;stroke:none"
   id="path3034" /><path
   d="m 483,128.69 60.69,0 0,-59.782 c -30.34,0 -30.34,-23 -60.69,-11.5 l 0,71.282 z m 5,0 0,7.75 60.28,0 0,-60.157 c -2.29,0 -4.59,-0.416 -4.59,-0.416 m -50.99,60.573 0,7.56 60.8,0 0,-59.967 c -2.61,0 -5.22,-0.312 -5.22,-0.312"
   style="fill:none;stroke:#385d8a;stroke-opacity:1;stroke-width:2;stroke-linecap:butt;stroke-linejoin:round;stroke-miterlimit:10;stroke-dasharray:none"
   id="path3036" /><text
   transform="matrix(1,0,0,-1,503.62,108.55)"
   id="text3038"><tspan
     style="fill:#ffffff;fill-opacity:1;fill-rule:nonzero;stroke:none;font-family:Calibri;font-variant:normal;font-weight:normal;font-size:18;writing-mode:lr;-inkscape-font-specification:Calibri"
     x="0"
     y="0"
     id="tspan3040">3</tspan></text>

<text
   transform="matrix(1,0,0,-1,512.74,113.95)"
   id="text3042"><tspan
     style="fill:#ffffff;fill-opacity:1;fill-rule:nonzero;stroke:none;font-family:Calibri;font-variant:normal;font-weight:normal;font-size:12;writing-mode:lr;-inkscape-font-specification:Calibri"
     x="0 4.08"
     y="0"
     sodipodi:role="line"
     id="tspan3044">rd</tspan></text>

<text
   transform="matrix(1,0,0,-1,494.14,86.928)"
   id="text3046"><tspan
     style="fill:#ffffff;fill-opacity:1;fill-rule:nonzero;stroke:none;font-family:Calibri;font-variant:normal;font-weight:normal;font-size:18.024;writing-mode:lr;-inkscape-font-specification:Calibri"
     x="0 9.4626 18.096096 24.386472 30.352416 38.517288"
     y="0"
     sodipodi:role="line"
     id="tspan3048">party </tspan></text>

<text
   transform="matrix(1,0,0,-1,504.58,65.328)"
   id="text3050"><tspan
     style="fill:#ffffff;fill-opacity:1;fill-rule:nonzero;stroke:none;font-family:Calibri;font-variant:normal;font-weight:normal;font-size:18;writing-mode:lr;-inkscape-font-specification:Calibri"
     x="0 4.08 8.16"
     y="0"
     sodipodi:role="line"
     id="tspan3052">lib</tspan></text>

<path
   d="m 402,150 78,0 0,36 -78,0 0,-36 z"
   style="fill:#ffffff;fill-opacity:1;fill-rule:evenodd;stroke:none"
   id="path3054" /><g
   id="g3056"><path
     d="m 402,150 78,0 0,36 -78,0 0,-36 z"
     style="fill:none;stroke:#385d8a;stroke-opacity:1;stroke-width:2;stroke-linecap:butt;stroke-linejoin:round;stroke-miterlimit:10;stroke-dasharray:6,2;stroke-dashoffset:0"
     id="path3058" /></g><text
   transform="matrix(1,0,0,-1,436.92,163.22)"
   id="text3060"><tspan
     style="fill:#000000;fill-opacity:1;fill-rule:nonzero;stroke:none;font-family:Calibri;font-variant:normal;font-weight:normal;font-size:14.04;writing-mode:lr;-inkscape-font-specification:Calibri"
     x="0"
     y="0"
     id="tspan3062">A</tspan></text>

<path
   d="m 468,150 12,0 0,18 -12,0 0,-18 z"
   style="fill:#ffffff;fill-opacity:1;fill-rule:evenodd;stroke:none"
   id="path3064" /><g
   id="g3066"><path
     d="m 468,150 12,0 0,18 -12,0 0,-18 z"
     style="fill:none;stroke:#e46c0a;stroke-opacity:1;stroke-width:2;stroke-linecap:butt;stroke-linejoin:round;stroke-miterlimit:10;stroke-dasharray:6,2;stroke-dashoffset:0"
     id="path3068" /></g><path
   d="m 93,136.5 78,0 0,18 -78,0 0,-18 z"
   style="fill:#ffffff;fill-opacity:1;fill-rule:evenodd;stroke:none"
   id="path3070" /><g
   id="g3072"><path
     d="m 93,136.5 78,0 0,18 -78,0 0,-18 z"
     style="fill:none;stroke:#385d8a;stroke-opacity:1;stroke-width:2;stroke-linecap:butt;stroke-linejoin:round;stroke-miterlimit:10;stroke-dasharray:6,2;stroke-dashoffset:0"
     id="path3074" /></g><text
   transform="matrix(1,0,0,-1,127.87,140.74)"
   id="text3076"><tspan
     style="fill:#000000;fill-opacity:1;fill-rule:nonzero;stroke:none;font-family:Calibri;font-variant:normal;font-weight:normal;font-size:14.04;writing-mode:lr;-inkscape-font-specification:Calibri"
     x="0"
     y="0"
     id="tspan3078">A</tspan></text>

<path
   d="m 159,136.5 12,0 0,9 -12,0 0,-9 z"
   style="fill:#ffffff;fill-opacity:1;fill-rule:evenodd;stroke:none"
   id="path3080" /><g
   id="g3082"><path
     d="m 159,136.5 12,0 0,9 -12,0 0,-9 z"
     style="fill:none;stroke:#e46c0a;stroke-opacity:1;stroke-width:2;stroke-linecap:butt;stroke-linejoin:round;stroke-miterlimit:10;stroke-dasharray:6,2;stroke-dashoffset:0"
     id="path3084" /></g><path
   d="m 93,160.5 78,0 0,18 -78,0 0,-18 z"
   style="fill:#ffffff;fill-opacity:1;fill-rule:evenodd;stroke:none"
   id="path3086" /><g
   id="g3088"><path
     d="m 93,160.5 78,0 0,18 -78,0 0,-18 z"
     style="fill:none;stroke:#385d8a;stroke-opacity:1;stroke-width:2;stroke-linecap:butt;stroke-linejoin:round;stroke-miterlimit:10;stroke-dasharray:6,2;stroke-dashoffset:0"
     id="path3090" /></g><text
   transform="matrix(1,0,0,-1,128.11,164.74)"
   id="text3092"><tspan
     style="fill:#000000;fill-opacity:1;fill-rule:nonzero;stroke:none;font-family:Calibri;font-variant:normal;font-weight:normal;font-size:14.04;writing-mode:lr;-inkscape-font-specification:Calibri"
     x="0"
     y="0"
     id="tspan3094">B</tspan></text>

<path
   d="m 159,160.5 12,0 0,9 -12,0 0,-9 z"
   style="fill:#ffffff;fill-opacity:1;fill-rule:evenodd;stroke:none"
   id="path3096" /><g
   id="g3098"><path
     d="m 159,160.5 12,0 0,9 -12,0 0,-9 z"
     style="fill:none;stroke:#e46c0a;stroke-opacity:1;stroke-width:2;stroke-linecap:butt;stroke-linejoin:round;stroke-miterlimit:10;stroke-dasharray:6,2;stroke-dashoffset:0"
     id="path3100" /></g><path
   d="m 180,171.5 85.5,0 c 1.1,0 2,-0.89 2,-2 l 0,-78.54 -4,0 0,78.54 2,-2 -85.5,0 0,4 z m 94.23,-69.55 -8.73,-14.959 -8.73,14.959 c -0.55,0.96 -0.23,2.18 0.72,2.74 0.96,0.55 2.18,0.23 2.74,-0.72 l 7,-12.002 -3.46,0 7,12.002 c 0.56,0.95 1.78,1.27 2.74,0.72 0.95,-0.56 1.27,-1.78 0.72,-2.74 z"
   style="fill:#4a7ebb;fill-opacity:1;fill-rule:nonzero;stroke:none"
   id="path3102" /><path
   d="m 480,170 81.91,0 0,-4 -81.91,0 0,4 z m 70.92,6.73 14.96,-8.73 -14.96,-8.73 c -0.95,-0.55 -2.18,-0.23 -2.73,0.72 -0.56,0.96 -0.24,2.18 0.72,2.74 l 0,0 12,7 0,-3.46 -12,7 c -0.96,0.56 -1.28,1.78 -0.72,2.74 0.55,0.95 1.78,1.27 2.73,0.72 z"
   style="fill:#4a7ebb;fill-opacity:1;fill-rule:nonzero;stroke:none"
   id="path3104" /><g
   id="g3106"><g
     id="g3108"
     clip-path="url(#clipPath3110)"><path
       d="m 521.1,144 0,24 c 0,1.1 0.9,2 2,2 l 38.81,0 0,-4 -38.81,0 2,2 0,-24 -4,0 z m 29.82,32.73 14.96,-8.73 -14.96,-8.73 c -0.95,-0.55 -2.18,-0.23 -2.73,0.72 -0.56,0.96 -0.24,2.18 0.72,2.74 l 12,7 0,-3.46 -12,7 c -0.96,0.56 -1.28,1.78 -0.72,2.74 0.55,0.95 1.78,1.27 2.73,0.72 z"
       style="fill:#4a7ebb;fill-opacity:1;fill-rule:nonzero;stroke:none"
       id="path3114" /></g></g><text
   transform="matrix(1,0,0,-1,206.98,64.56)"
   id="text3116"><tspan
     style="fill:#000000;fill-opacity:1;fill-rule:nonzero;stroke:none;font-family:Calibri;font-variant:normal;font-weight:bold;font-size:20.04;writing-mode:lr;-inkscape-font-specification:Calibri Bold"
     x="0 17.39472 27.47484 38.23632 42.80544 48.15612 58.75728 65.47068 75.5508 82.665 88.63692 98.53668 106.9134"
     y="0"
     sodipodi:role="line"
     id="tspan3118">Web Interface</tspan></text>

<text
   transform="matrix(1,0,0,-1,361.2,141.1)"
   id="text3120"><tspan
     style="fill:#000000;fill-opacity:1;fill-rule:nonzero;stroke:none;font-family:Calibri;font-variant:normal;font-weight:bold;font-size:20.04;writing-mode:lr;-inkscape-font-specification:Calibri Bold"
     x="0 12.76548 17.69532"
     y="0"
     sodipodi:role="line"
     id="tspan3122">Git</tspan></text>

<text
   transform="matrix(1,0,0,-1,493.51,183.1)"
   id="text3124"><tspan
     style="fill:#000000;fill-opacity:1;fill-rule:nonzero;stroke:none;font-family:Calibri;font-variant:normal;font-weight:bold;font-size:20.04;writing-mode:lr;-inkscape-font-specification:Calibri Bold"
     x="0 10.60116 28.11612 37.91568 46.91364"
     y="0"
     sodipodi:role="line"
     id="tspan3126">CMake</tspan></text>

<path
   d="m 180.01,171.5 218.04,-1.47 -0.02,-4 -218.04,1.47 0.02,4 z m 207.1,5.33 14.9,-8.83 -15.02,-8.63 c -0.96,-0.55 -2.18,-0.22 -2.73,0.74 -0.55,0.96 -0.22,2.18 0.74,2.73 l 12.04,6.92 -0.02,-3.45 -11.95,7.08 c -0.95,0.56 -1.27,1.79 -0.7,2.74 0.56,0.95 1.79,1.26 2.74,0.7 z"
   style="fill:#4a7ebb;fill-opacity:1;fill-rule:nonzero;stroke:none"
   id="path3128" /><path
   d="m 215.68,181.38 c -1.81,13.28 7.53,25.5 20.88,27.3 5.41,0.73 10.91,-0.36 15.61,-3.1 4.99,9.35 16.65,12.91 26.05,7.94 1.64,-0.87 3.15,-1.97 4.47,-3.27 3.89,7.75 13.35,10.9 21.14,7.03 2.16,-1.07 4.04,-2.62 5.5,-4.52 6.26,7.33 17.33,8.24 24.72,2.02 3.11,-2.61 5.2,-6.21 5.92,-10.19 10.26,-2.78 16.32,-13.33 13.52,-23.56 -0.23,-0.86 -0.53,-1.7 -0.88,-2.52 8.23,-10.66 6.22,-25.93 -4.5,-34.12 -3.34,-2.55 -7.28,-4.2 -11.44,-4.79 -0.09,-11.46 -9.52,-20.68 -21.06,-20.59 -3.85,0.03 -7.62,1.12 -10.89,3.15 -3.9,-12.86 -17.51,-20.12 -30.4,-16.23 -5.4,1.63 -10.07,5.08 -13.21,9.76 -13.19,-7.92 -30.32,-3.66 -38.25,9.51 -0.1,0.17 -0.2,0.34 -0.3,0.5 -8.63,-1 -16.46,5.13 -17.47,13.69 -0.54,4.57 0.97,9.14 4.14,12.5 -7.48,4.37 -9.99,13.98 -5.61,21.46 2.53,4.31 6.96,7.17 11.93,7.68 l 0.13,0.35 z"
   style="fill:#4f81bd;fill-opacity:1;fill-rule:evenodd;stroke:none"
   id="path3130" /><path
   d="m 215.68,181.38 c -1.81,13.28 7.53,25.5 20.88,27.3 5.41,0.73 10.91,-0.36 15.61,-3.1 4.99,9.35 16.65,12.91 26.05,7.94 1.64,-0.87 3.15,-1.97 4.47,-3.27 3.89,7.75 13.35,10.9 21.14,7.03 2.16,-1.07 4.04,-2.62 5.5,-4.52 6.26,7.33 17.33,8.24 24.72,2.02 3.11,-2.61 5.2,-6.21 5.92,-10.19 10.26,-2.78 16.32,-13.33 13.52,-23.56 -0.23,-0.86 -0.53,-1.7 -0.88,-2.52 8.23,-10.66 6.22,-25.93 -4.5,-34.12 -3.34,-2.55 -7.28,-4.2 -11.44,-4.79 -0.09,-11.46 -9.52,-20.68 -21.06,-20.59 -3.85,0.03 -7.62,1.12 -10.89,3.15 -3.9,-12.86 -17.51,-20.12 -30.4,-16.23 -5.4,1.63 -10.07,5.08 -13.21,9.76 -13.19,-7.92 -30.32,-3.66 -38.25,9.51 -0.1,0.17 -0.2,0.34 -0.3,0.5 -8.63,-1 -16.46,5.13 -17.47,13.69 -0.54,4.57 0.97,9.14 4.14,12.5 -7.48,4.37 -9.99,13.98 -5.61,21.46 2.53,4.31 6.96,7.17 11.93,7.68 l 0.13,0.35 z"
   style="fill:none;stroke:#385d8a;stroke-opacity:1;stroke-width:2;stroke-linecap:butt;stroke-linejoin:round;stroke-miterlimit:10;stroke-dasharray:none"
   id="path3132" /><path
   d="m 218.55,150.23 c -3.2,-0.25 -6.39,0.48 -9.15,2.1 m 17.22,-25.12 c -1.29,-0.51 -2.63,-0.85 -4,-1.01 m 38.48,-10.05 c -0.96,1.44 -1.77,2.98 -2.41,4.59 m 47.01,6.86 c -0.14,-1.71 -0.47,-3.4 -0.97,-5.04 m 20.11,36.17 c 7.24,-3.5 11.81,-10.83 11.74,-18.83 m 15.96,38.89 c -1.17,-2.73 -2.96,-5.14 -5.23,-7.06 m -7.32,33.26 c 0.2,-1.1 0.29,-2.22 0.28,-3.34 m -33.67,7.23 c 0.69,1.53 1.59,2.97 2.68,4.25 m -27.73,-6.28 c 0.28,1.27 0.72,2.5 1.3,3.67 m -30.69,-4.92 c 1.7,-0.99 3.28,-2.18 4.69,-3.55 M 216.5,177.64 c -0.37,1.22 -0.64,2.48 -0.82,3.74"
   style="fill:none;stroke:#385d8a;stroke-opacity:1;stroke-width:2;stroke-linecap:butt;stroke-linejoin:round;stroke-miterlimit:10;stroke-dasharray:none"
   id="path3134" /><text
   transform="matrix(1,0,0,-1,244.39,158.86)"
   id="text3136"><tspan
     style="fill:#ffffff;fill-opacity:1;fill-rule:nonzero;stroke:none;font-family:Calibri;font-variant:normal;font-weight:normal;font-size:18;writing-mode:lr;-inkscape-font-specification:Calibri"
     x="0 4.536 13.914 19.674 28.638 34.92 44.37 53.28"
     y="0"
     sodipodi:role="line"
     id="tspan3138">Internet</tspan></text>

<text
   transform="matrix(1,0,0,-1,81.84,98.64)"
   id="text3140"><tspan
     style="fill:#000000;fill-opacity:1;fill-rule:nonzero;stroke:none;font-family:Calibri;font-variant:normal;font-weight:normal;font-size:20.04;writing-mode:lr;-inkscape-font-specification:Calibri"
     x="0 10.56108 20.541 31.062 41.62308 49.45872 54.0078 60.48072 71.0418 78.03576 82.5648 92.54472"
     y="0"
     sodipodi:role="line"
     id="tspan3142">Repositories</tspan></text>

<text
   transform="matrix(1,0,0,-1,413.3,126.38)"
   id="text3144"><tspan
     style="fill:#000000;fill-opacity:1;fill-rule:nonzero;stroke:none;font-family:Calibri;font-variant:normal;font-weight:normal;font-size:20.04;writing-mode:lr;-inkscape-font-specification:Calibri"
     x="0 9.19836 19.75944 30.34056 37.05396 45.53088"
     y="0"
     sodipodi:role="line"
     id="tspan3146">Source</tspan></text>

<text
   transform="matrix(1,0,0,-1,558.89,126.38)"
   id="text3148"><tspan
     style="fill:#000000;fill-opacity:1;fill-rule:nonzero;stroke:none;font-family:Calibri;font-variant:normal;font-weight:normal;font-size:20.04;writing-mode:lr;-inkscape-font-specification:Calibri"
     x="0 11.60316 22.18428 32.70528 37.31448 41.92368 50.26032 59.619 66.3324 70.9416 81.50268"
     y="0"
     sodipodi:role="line"
     id="tspan3150">Application</tspan></text>

</g></svg>